Date,ads
8/3/17 0:00,49136
8/3/17 1:00,46450
8/3/17 2:00,46355
8/3/17 3:00,
8/3/17 4:00,42281
8/3/17 5:00,42059
8/3/17 6:00,41136
8/3/17 7:00,39974
8/3/17 8:00,37261
8/3/17 9:00,35194
8/3/17 10:00,33188
8/3/17 11:00,33860
8/3/17 12:00,35437
8/3/17 13:00,
8/3/17 14:00,38883
8/3/17 15:00,38449
8/3/17 16:00,41144
8/3/17 17:00,44986
8/3/17 18:00,
8/3/17 19:00,
8/3/17 20:00,52504
8/3/17 21:00,52998
8/3/17 22:00,54497
8/3/17 23:00,53225
8/4/17 0:00,53340
8/4/17 1:00,50372
8/4/17 2:00,49659
8/4/17 3:00,49061
8/4/17 4:00,47064
8/4/17 5:00,49502
8/4/17 6:00,36092
8/4/17 7:00,33534
8/4/17 8:00,33614
8/4/17 9:00,31387
8/4/17 10:00,30942
8/4/17 11:00,30781
8/4/17 12:00,32040
8/4/17 13:00,34229
8/4/17 14:00,34965
8/4/17 15:00,
8/4/17 16:00,35761
8/4/17 17:00,40269
8/4/17 18:00,
8/4/17 19:00,47662
8/4/17 20:00,48299
8/4/17 21:00,47808
8/4/17 22:00,47458
8/4/17 23:00,47748
8/5/17 0:00,46454
8/5/17 1:00,44644
8/5/17 2:00,43024
8/5/17 3:00,40965
8/5/17 4:00,38612
8/5/17 5:00,37204
8/5/17 6:00,36675
8/5/17 7:00,35793
8/5/17 8:00,
8/5/17 9:00,32478
8/5/17 10:00,31946
8/5/17 11:00,
8/5/17 12:00,34386
8/5/17 13:00,
8/5/17 14:00,39756
8/5/17 15:00,37690
8/5/17 16:00,40521
8/5/17 17:00,44935
8/5/17 18:00,46760
8/5/17 19:00,48561
8/5/17 20:00,49723
8/5/17 21:00,51836
8/5/17 22:00,48950
8/5/17 23:00,48369
8/6/17 0:00,45990
8/6/17 1:00,45116
8/6/17 2:00,44082
8/6/17 3:00,42906
8/6/17 4:00,
8/6/17 5:00,
8/6/17 6:00,36564
8/6/17 7:00,36664
8/6/17 8:00,34800
8/6/17 9:00,33793
8/6/17 10:00,32162
8/6/17 11:00,32530
8/6/17 12:00,33822
8/6/17 13:00,34196
8/6/17 14:00,35782
8/6/17 15:00,34945
8/6/17 16:00,38735
8/6/17 17:00,42388
8/6/17 18:00,45911
8/6/17 19:00,48359
8/6/17 20:00,48789
8/6/17 21:00,49199
8/6/17 22:00,49724
8/6/17 23:00,
8/7/17 0:00,45420
8/7/17 1:00,45589
8/7/17 2:00,43125
8/7/17 3:00,41715
8/7/17 4:00,41054
8/7/17 5:00,
8/7/17 6:00,38489
8/7/17 7:00,35313
8/7/17 8:00,34756
8/7/17 9:00,33537
8/7/17 10:00,32204
8/7/17 11:00,32920
8/7/17 12:00,33745
8/7/17 13:00,36117
8/7/17 14:00,37729
8/7/17 15:00,
8/7/17 16:00,40054
8/7/17 17:00,44467
8/7/17 18:00,47528
8/7/17 19:00,49087
8/7/17 20:00,50488
8/7/17 21:00,50996
8/7/17 22:00,51078
8/7/17 23:00,49822
8/8/17 0:00,46662
8/8/17 1:00,45270
8/8/17 2:00,43989
8/8/17 3:00,42538
8/8/17 4:00,40866
8/8/17 5:00,39692
8/8/17 6:00,38662
8/8/17 7:00,37216
8/8/17 8:00,36397
8/8/17 9:00,35048
8/8/17 10:00,34658
8/8/17 11:00,
8/8/17 12:00,39906
8/8/17 13:00,43533
8/8/17 14:00,45028
8/8/17 15:00,44010
8/8/17 16:00,46169
8/8/17 17:00,50015
8/8/17 18:00,54464
8/8/17 19:00,58523
8/8/17 20:00,57088
8/8/17 21:00,59309
8/8/17 22:00,56528
8/8/17 23:00,56795
8/9/17 0:00,
8/9/17 1:00,51724
8/9/17 2:00,49447
8/9/17 3:00,
8/9/17 4:00,45625
8/9/17 5:00,44885
8/9/17 6:00,45152
8/9/17 7:00,42475
8/9/17 8:00,40337
8/9/17 9:00,38265
8/9/17 10:00,37396
8/9/17 11:00,35274
8/9/17 12:00,37696
8/9/17 13:00,38848
8/9/17 14:00,40022
8/9/17 15:00,40947
8/9/17 16:00,42620
8/9/17 17:00,46929
8/9/17 18:00,51143
8/9/17 19:00,53397
8/9/17 20:00,54146
8/9/17 21:00,55991
8/9/17 22:00,56517
8/9/17 23:00,57129
8/10/17 0:00,54841
8/10/17 1:00,53266
8/10/17 2:00,51497
8/10/17 3:00,48029
8/10/17 4:00,46162
8/10/17 5:00,44376
8/10/17 6:00,44796
8/10/17 7:00,44152
8/10/17 8:00,42017
8/10/17 9:00,39388
8/10/17 10:00,38347
8/10/17 11:00,39391
8/10/17 12:00,40869
8/10/17 13:00,42794
8/10/17 14:00,45188
8/10/17 15:00,44537
8/10/17 16:00,47473
8/10/17 17:00,51623
8/10/17 18:00,55256
8/10/17 19:00,57588
8/10/17 20:00,57763
8/10/17 21:00,58934
8/10/17 22:00,60812
8/10/17 23:00,59800
8/11/17 0:00,58538
8/11/17 1:00,57351
8/11/17 2:00,55531
8/11/17 3:00,54362
8/11/17 4:00,
8/11/17 5:00,54285
8/11/17 6:00,39255
8/11/17 7:00,38759
8/11/17 8:00,
8/11/17 9:00,37744
8/11/17 10:00,37309
8/11/17 11:00,37249
8/11/17 12:00,39173
8/11/17 13:00,43929
8/11/17 14:00,45736
8/11/17 15:00,43101
8/11/17 16:00,45675
8/11/17 17:00,48914
8/11/17 18:00,53074
8/11/17 19:00,55654
8/11/17 20:00,55847
8/11/17 21:00,57906
8/11/17 22:00,54368
8/11/17 23:00,52847
8/12/17 0:00,
8/12/17 1:00,48750
8/12/17 2:00,46157
8/12/17 3:00,44152
8/12/17 4:00,41617
8/12/17 5:00,40368
8/12/17 6:00,38195
8/12/17 7:00,37654
8/12/17 8:00,37075
8/12/17 9:00,36395
8/12/17 10:00,35038
8/12/17 11:00,35542
8/12/17 12:00,37641
8/12/17 13:00,39915
8/12/17 14:00,41418
8/12/17 15:00,40517
8/12/17 16:00,43129
8/12/17 17:00,47882
8/12/17 18:00,50523
8/12/17 19:00,53589
8/12/17 20:00,54459
8/12/17 21:00,54278
8/12/17 22:00,53803
8/12/17 23:00,54193
8/13/17 0:00,52997
8/13/17 1:00,50320
8/13/17 2:00,49234
8/13/17 3:00,46974
8/13/17 4:00,42214
8/13/17 5:00,40982
8/13/17 6:00,40134
8/13/17 7:00,38963
8/13/17 8:00,38333
8/13/17 9:00,37828
8/13/17 10:00,36635
8/13/17 11:00,36676
8/13/17 12:00,38701
8/13/17 13:00,41202
8/13/17 14:00,42522
8/13/17 15:00,41457
8/13/17 16:00,44820
8/13/17 17:00,
8/13/17 18:00,53421
8/13/17 19:00,56256
8/13/17 20:00,56837
8/13/17 21:00,56380
8/13/17 22:00,57130
8/13/17 23:00,57045
8/14/17 0:00,54473
8/14/17 1:00,
8/14/17 2:00,47832
8/14/17 3:00,46125
8/14/17 4:00,43938
8/14/17 5:00,41746
8/14/17 6:00,39270
8/14/17 7:00,39863
8/14/17 8:00,39664
8/14/17 9:00,39069
8/14/17 10:00,38009
8/14/17 11:00,38987
8/14/17 12:00,42017
8/14/17 13:00,45177
8/14/17 14:00,49221
8/14/17 15:00,45457
8/14/17 16:00,48104
8/14/17 17:00,53905
8/14/17 18:00,56028
8/14/17 19:00,59461
8/14/17 20:00,58741
8/14/17 21:00,60140
8/14/17 22:00,59425
8/14/17 23:00,57317
8/15/17 0:00,55352
8/15/17 1:00,52462
8/15/17 2:00,50062
8/15/17 3:00,46576
8/15/17 4:00,44367
8/15/17 5:00,41022
8/15/17 6:00,40087
8/15/17 7:00,38389
8/15/17 8:00,39167
8/15/17 9:00,38461
8/15/17 10:00,37254
8/15/17 11:00,39040
8/15/17 12:00,42351
8/15/17 13:00,45391
8/15/17 14:00,47076
8/15/17 15:00,45753
8/15/17 16:00,50391
8/15/17 17:00,55109
8/15/17 18:00,60423
8/15/17 19:00,65408
8/15/17 20:00,65917
8/15/17 21:00,66821
8/15/17 22:00,64289
8/15/17 23:00,64800
8/16/17 0:00,63110
8/16/17 1:00,59715
8/16/17 2:00,56761
8/16/17 3:00,53584
8/16/17 4:00,51671
8/16/17 5:00,51141
8/16/17 6:00,49973
8/16/17 7:00,48750
8/16/17 8:00,45889
8/16/17 9:00,42085
8/16/17 10:00,41547
8/16/17 11:00,43029
8/16/17 12:00,44404
8/16/17 13:00,46437
8/16/17 14:00,48226
8/16/17 15:00,47698
8/16/17 16:00,50647
8/16/17 17:00,55686
8/16/17 18:00,59281
8/16/17 19:00,61611
8/16/17 20:00,63568
8/16/17 21:00,64997
8/16/17 22:00,65743
8/16/17 23:00,65897
8/17/17 0:00,65243
8/17/17 1:00,62652
8/17/17 2:00,60443
8/17/17 3:00,55877
8/17/17 4:00,52191
8/17/17 5:00,51879
8/17/17 6:00,51308
8/17/17 7:00,50478
8/17/17 8:00,48716
8/17/17 9:00,46045
8/17/17 10:00,44287
8/17/17 11:00,45138
8/17/17 12:00,48316
8/17/17 13:00,51719
8/17/17 14:00,54545
8/17/17 15:00,53181
8/17/17 16:00,57068
8/17/17 17:00,61956
8/17/17 18:00,64696
8/17/17 19:00,66608
8/17/17 20:00,68997
8/17/17 21:00,67444
8/17/17 22:00,65921
8/17/17 23:00,67124
8/18/17 0:00,68053
8/18/17 1:00,63729
8/18/17 2:00,61150
8/18/17 3:00,61624
8/18/17 4:00,56647
8/18/17 5:00,58629
8/18/17 6:00,43322
8/18/17 7:00,43067
8/18/17 8:00,43812
8/18/17 9:00,42081
8/18/17 10:00,40834
8/18/17 11:00,41801
8/18/17 12:00,42560
8/18/17 13:00,44807
8/18/17 14:00,46609
8/18/17 15:00,45232
8/18/17 16:00,48470
8/18/17 17:00,52896
8/18/17 18:00,57816
8/18/17 19:00,60820
8/18/17 20:00,63967
8/18/17 21:00,64613
8/18/17 22:00,63230
8/18/17 23:00,60756
8/19/17 0:00,61422
8/19/17 1:00,54417
8/19/17 2:00,53281
8/19/17 3:00,51423
8/19/17 4:00,48070
8/19/17 5:00,45116
8/19/17 6:00,43634
8/19/17 7:00,42900
8/19/17 8:00,43352
8/19/17 9:00,42144
8/19/17 10:00,40208
8/19/17 11:00,41352
8/19/17 12:00,42687
8/19/17 13:00,45095
8/19/17 14:00,47024
8/19/17 15:00,45076
8/19/17 16:00,49519
8/19/17 17:00,54908
8/19/17 18:00,59885
8/19/17 19:00,61536
8/19/17 20:00,64104
8/19/17 21:00,65057
8/19/17 22:00,64688
8/19/17 23:00,63687
8/20/17 0:00,60944
8/20/17 1:00,56263
8/20/17 2:00,55227
8/20/17 3:00,53855
8/20/17 4:00,49456
8/20/17 5:00,46981
8/20/17 6:00,46043
8/20/17 7:00,45059
8/20/17 8:00,44689
8/20/17 9:00,44078
8/20/17 10:00,42289
8/20/17 11:00,43389
8/20/17 12:00,46985
8/20/17 13:00,51661
8/20/17 14:00,52790
8/20/17 15:00,49703
8/20/17 16:00,51742
8/20/17 17:00,56019
8/20/17 18:00,59712
8/20/17 19:00,62211
8/20/17 20:00,65588
8/20/17 21:00,66854
8/20/17 22:00,61421
8/20/17 23:00,59527
8/21/17 0:00,54809
8/21/17 1:00,59119
8/21/17 2:00,55303
8/21/17 3:00,54370
8/21/17 4:00,50380
8/21/17 5:00,47965
8/21/17 6:00,46548
8/21/17 7:00,45384
8/21/17 8:00,43707
8/21/17 9:00,43001
8/21/17 10:00,42424
8/21/17 11:00,43415
8/21/17 12:00,45190
8/21/17 13:00,47145
8/21/17 14:00,49104
8/21/17 15:00,47086
8/21/17 16:00,50670
8/21/17 17:00,55029
8/21/17 18:00,61036
8/21/17 19:00,65172
8/21/17 20:00,66715
8/21/17 21:00,66320
8/21/17 22:00,66785
8/21/17 23:00,65611
8/22/17 0:00,62400
8/22/17 1:00,59198
8/22/17 2:00,56148
8/22/17 3:00,53403
8/22/17 4:00,52777
8/22/17 5:00,50551
8/22/17 6:00,48165
8/22/17 7:00,48123
8/22/17 8:00,47289
8/22/17 9:00,45058
8/22/17 10:00,43859
8/22/17 11:00,47334
8/22/17 12:00,53422
8/22/17 13:00,56121
8/22/17 14:00,56856
8/22/17 15:00,55471
8/22/17 16:00,59722
8/22/17 17:00,65956
8/22/17 18:00,71923
8/22/17 19:00,79646
8/22/17 20:00,80444
8/22/17 21:00,81261
8/22/17 22:00,80996
8/22/17 23:00,81515
8/23/17 0:00,80546
8/23/17 1:00,75662
8/23/17 2:00,73234
8/23/17 3:00,69993
8/23/17 4:00,66625
8/23/17 5:00,65653
8/23/17 6:00,64715
8/23/17 7:00,63575
8/23/17 8:00,59074
8/23/17 9:00,54450
8/23/17 10:00,53191
8/23/17 11:00,52882
8/23/17 12:00,56170
8/23/17 13:00,58036
8/23/17 14:00,64269
8/23/17 15:00,61349
8/23/17 16:00,64711
8/23/17 17:00,68999
8/23/17 18:00,73987
8/23/17 19:00,77309
8/23/17 20:00,81147
8/23/17 21:00,83556
8/23/17 22:00,80139
8/23/17 23:00,81045
8/24/17 0:00,80221
8/24/17 1:00,76190
8/24/17 2:00,73438
8/24/17 3:00,69002
8/24/17 4:00,66062
8/24/17 5:00,65445
8/24/17 6:00,64325
8/24/17 7:00,62692
8/24/17 8:00,60243
8/24/17 9:00,56160
8/24/17 10:00,52877
8/24/17 11:00,54346
8/24/17 12:00,56503
8/24/17 13:00,59021
8/24/17 14:00,61665
8/24/17 15:00,61043
8/24/17 16:00,65011
8/24/17 17:00,72028
8/24/17 18:00,76494
8/24/17 19:00,80164
8/24/17 20:00,79658
8/24/17 21:00,78050
8/24/17 22:00,74548
8/24/17 23:00,83152
8/25/17 0:00,81796
8/25/17 1:00,73561
8/25/17 2:00,73938
8/25/17 3:00,66004
8/25/17 4:00,67303
8/25/17 5:00,68961
8/25/17 6:00,49773
8/25/17 7:00,50104
8/25/17 8:00,40583
8/25/17 9:00,19986
8/25/17 10:00,24640
8/25/17 11:00,34087
8/25/17 12:00,42879
8/25/17 13:00,39842
8/25/17 14:00,43892
8/25/17 15:00,44929
8/25/17 16:00,49072
8/25/17 17:00,54110
8/25/17 18:00,49313
8/25/17 19:00,56043
8/25/17 20:00,68224
8/25/17 21:00,75415
8/25/17 22:00,75879
8/25/17 23:00,74545
8/26/17 0:00,72059
8/26/17 1:00,65301
8/26/17 2:00,62692
8/26/17 3:00,51478
8/26/17 4:00,53798
8/26/17 5:00,53194
8/26/17 6:00,53784
8/26/17 7:00,53735
8/26/17 8:00,53562
8/26/17 9:00,51685
8/26/17 10:00,49465
8/26/17 11:00,49592
8/26/17 12:00,54484
8/26/17 13:00,54813
8/26/17 14:00,62950
8/26/17 15:00,59315
8/26/17 16:00,64327
8/26/17 17:00,69411
8/26/17 18:00,74832
8/26/17 19:00,80429
8/26/17 20:00,83921
8/26/17 21:00,84314
8/26/17 22:00,79530
8/26/17 23:00,79539
8/27/17 0:00,78309
8/27/17 1:00,76282
8/27/17 2:00,73934
8/27/17 3:00,70209
8/27/17 4:00,62712
8/27/17 5:00,57677
8/27/17 6:00,55831
8/27/17 7:00,54116
8/27/17 8:00,54792
8/27/17 9:00,52637
8/27/17 10:00,50475
8/27/17 11:00,49966
8/27/17 12:00,53266
8/27/17 13:00,55158
8/27/17 14:00,58566
8/27/17 15:00,55871
8/27/17 16:00,60416
8/27/17 17:00,64790
8/27/17 18:00,72163
8/27/17 19:00,76938
8/27/17 20:00,78969
8/27/17 21:00,80206
8/27/17 22:00,79629
8/27/17 23:00,79969
8/28/17 0:00,78306
8/28/17 1:00,73978
8/28/17 2:00,70359
8/28/17 3:00,67325
8/28/17 4:00,63055
8/28/17 5:00,58184
8/28/17 6:00,57305
8/28/17 7:00,56095
8/28/17 8:00,54379
8/28/17 9:00,52678
8/28/17 10:00,49737
8/28/17 11:00,51284
8/28/17 12:00,53442
8/28/17 13:00,57095
8/28/17 14:00,59053
8/28/17 15:00,57335
8/28/17 16:00,62608
8/28/17 17:00,67596
8/28/17 18:00,73492
8/28/17 19:00,79133
8/28/17 20:00,82083
8/28/17 21:00,81775
8/28/17 22:00,82932
8/28/17 23:00,82820
8/29/17 0:00,81050
8/29/17 1:00,78494
8/29/17 2:00,74563
8/29/17 3:00,74836
8/29/17 4:00,69085
8/29/17 5:00,68415
8/29/17 6:00,66172
8/29/17 7:00,62157
8/29/17 8:00,57531
8/29/17 9:00,53884
8/29/17 10:00,50805
8/29/17 11:00,52476
8/29/17 12:00,59082
8/29/17 13:00,62174
8/29/17 14:00,69935
8/29/17 15:00,67077
8/29/17 16:00,71852
8/29/17 17:00,79493
8/29/17 18:00,86341
8/29/17 19:00,93441
8/29/17 20:00,97717
8/29/17 21:00,100421
8/29/17 22:00,95699
8/29/17 23:00,95045
8/30/17 0:00,92478
8/30/17 1:00,86481
8/30/17 2:00,82491
8/30/17 3:00,76598
8/30/17 4:00,74381
8/30/17 5:00,72841
8/30/17 6:00,71777
8/30/17 7:00,70371
8/30/17 8:00,64427
8/30/17 9:00,58464
8/30/17 10:00,54357
8/30/17 11:00,53808
8/30/17 12:00,56530
8/30/17 13:00,58157
8/30/17 14:00,58896
8/30/17 15:00,59278
8/30/17 16:00,63171
8/30/17 17:00,71896
8/30/17 18:00,77297
8/30/17 19:00,82568
8/30/17 20:00,83079
8/30/17 21:00,84568
8/30/17 22:00,87521
8/30/17 23:00,86961
8/31/17 0:00,86645
8/31/17 1:00,84000
8/31/17 2:00,80663
8/31/17 3:00,76474
8/31/17 4:00,70755
8/31/17 5:00,71105
8/31/17 6:00,69563
8/31/17 7:00,68905
8/31/17 8:00,64243
8/31/17 9:00,58534
8/31/17 10:00,54010
8/31/17 11:00,53162
8/31/17 12:00,54702
8/31/17 13:00,56824
8/31/17 14:00,58285
8/31/17 15:00,57099
8/31/17 16:00,62370
8/31/17 17:00,68512
8/31/17 18:00,74814
8/31/17 19:00,78728
8/31/17 20:00,81648
8/31/17 21:00,81129
8/31/17 22:00,80937
8/31/17 23:00,82482
9/1/17 0:00,83184
9/1/17 1:00,77798
9/1/17 2:00,78666
9/1/17 3:00,74976
9/1/17 4:00,72824
9/1/17 5:00,74962
9/1/17 6:00,56605
9/1/17 7:00,55276
9/1/17 8:00,54013
9/1/17 9:00,53636
9/1/17 10:00,49491
9/1/17 11:00,48233
9/1/17 12:00,51537
9/1/17 13:00,54594
9/1/17 14:00,59647
9/1/17 15:00,56781
9/1/17 16:00,58679
9/1/17 17:00,63533
9/1/17 18:00,68126
9/1/17 19:00,71247
9/1/17 20:00,74151
9/1/17 21:00,76385
9/1/17 22:00,71692
9/1/17 23:00,69621
9/2/17 0:00,66944
9/2/17 1:00,64472
9/2/17 2:00,62642
9/2/17 3:00,60778
9/2/17 4:00,56505
9/2/17 5:00,54180
9/2/17 6:00,53732
9/2/17 7:00,51010
9/2/17 8:00,51060
9/2/17 9:00,50045
9/2/17 10:00,46816
9/2/17 11:00,45515
9/2/17 12:00,47149
9/2/17 13:00,49138
9/2/17 14:00,50816
9/2/17 15:00,48827
9/2/17 16:00,52675
9/2/17 17:00,56885
9/2/17 18:00,63605
9/2/17 19:00,67902
9/2/17 20:00,69574
9/2/17 21:00,69476
9/2/17 22:00,69499
9/2/17 23:00,68697
9/3/17 0:00,68297
9/3/17 1:00,67099
9/3/17 2:00,64611
9/3/17 3:00,61883
9/3/17 4:00,59009
9/3/17 5:00,56134
9/3/17 6:00,54879
9/3/17 7:00,53292
9/3/17 8:00,53425
9/3/17 9:00,51693
9/3/17 10:00,49413
9/3/17 11:00,47497
9/3/17 12:00,48485
9/3/17 13:00,49895
9/3/17 14:00,51865
9/3/17 15:00,51253
9/3/17 16:00,54105
9/3/17 17:00,59442
9/3/17 18:00,65075
9/3/17 19:00,69866
9/3/17 20:00,71594
9/3/17 21:00,71557
9/3/17 22:00,72002
9/3/17 23:00,70667
9/4/17 0:00,70143
9/4/17 1:00,67607
9/4/17 2:00,66240
9/4/17 3:00,64843
9/4/17 4:00,61175
9/4/17 5:00,57209
9/4/17 6:00,56162
9/4/17 7:00,54351
9/4/17 8:00,53787
9/4/17 9:00,53525
9/4/17 10:00,50564
9/4/17 11:00,49319
9/4/17 12:00,50696
9/4/17 13:00,53678
9/4/17 14:00,58495
9/4/17 15:00,56313
9/4/17 16:00,59662
9/4/17 17:00,63808
9/4/17 18:00,70930
9/4/17 19:00,75278
9/4/17 20:00,75560
9/4/17 21:00,78511
9/4/17 22:00,74086
9/4/17 23:00,71680
9/5/17 0:00,68227
9/5/17 1:00,61999
9/5/17 2:00,51546
9/5/17 3:00,24513
9/5/17 4:00,23731
9/5/17 5:00,23745
9/5/17 6:00,38109
9/5/17 7:00,51193
9/5/17 8:00,50592
9/5/17 9:00,48737
9/5/17 10:00,47120
9/5/17 11:00,48205
9/5/17 12:00,50621
9/5/17 13:00,52691
9/5/17 14:00,53610
9/5/17 15:00,52944
9/5/17 16:00,55407
9/5/17 17:00,60799
9/5/17 18:00,67489
9/5/17 19:00,75426
9/5/17 20:00,77047
9/5/17 21:00,77000
9/5/17 22:00,75941
9/5/17 23:00,77056
9/6/17 0:00,76317
9/6/17 1:00,74286
9/6/17 2:00,69207
9/6/17 3:00,65504
9/6/17 4:00,64323
9/6/17 5:00,64668
9/6/17 6:00,64252
9/6/17 7:00,63576
9/6/17 8:00,58870
9/6/17 9:00,54069
9/6/17 10:00,50804
9/6/17 11:00,49391
9/6/17 12:00,50489
9/6/17 13:00,52198
9/6/17 14:00,53491
9/6/17 15:00,52772
9/6/17 16:00,55996
9/6/17 17:00,61922
9/6/17 18:00,66156
9/6/17 19:00,71877
9/6/17 20:00,73864
9/6/17 21:00,75743
9/6/17 22:00,75306
9/6/17 23:00,76165
9/7/17 0:00,77720
9/7/17 1:00,74887
9/7/17 2:00,72133
9/7/17 3:00,68456
9/7/17 4:00,65237
9/7/17 5:00,65089
9/7/17 6:00,63897
9/7/17 7:00,63544
9/7/17 8:00,60673
9/7/17 9:00,56122
9/7/17 10:00,52298
9/7/17 11:00,51918
9/7/17 12:00,53489
9/7/17 13:00,56100
9/7/17 14:00,58821
9/7/17 15:00,57426
9/7/17 16:00,62398
9/7/17 17:00,64679
9/7/17 18:00,71183
9/7/17 19:00,73501
9/7/17 20:00,72866
9/7/17 21:00,73991
9/7/17 22:00,72138
9/7/17 23:00,72488
9/8/17 0:00,71780
9/8/17 1:00,71383
9/8/17 2:00,72385
9/8/17 3:00,70296
9/8/17 4:00,68197
9/8/17 5:00,70818
9/8/17 6:00,53864
9/8/17 7:00,52021
9/8/17 8:00,52417
9/8/17 9:00,50413
9/8/17 10:00,48233
9/8/17 11:00,45959
9/8/17 12:00,46336
9/8/17 13:00,47914
9/8/17 14:00,48538
9/8/17 15:00,48324
9/8/17 16:00,51149
9/8/17 17:00,56616
9/8/17 18:00,61247
9/8/17 19:00,65545
9/8/17 20:00,66142
9/8/17 21:00,66298
9/8/17 22:00,66663
9/8/17 23:00,64381
9/9/17 0:00,65518
9/9/17 1:00,63715
9/9/17 2:00,63228
9/9/17 3:00,62855
9/9/17 4:00,58699
9/9/17 5:00,55630
9/9/17 6:00,55613
9/9/17 7:00,54212
9/9/17 8:00,53081
9/9/17 9:00,50399
9/9/17 10:00,49539
9/9/17 11:00,46561
9/9/17 12:00,47673
9/9/17 13:00,49049
9/9/17 14:00,51333
9/9/17 15:00,49693
9/9/17 16:00,52873
9/9/17 17:00,58275
9/9/17 18:00,62794
9/9/17 19:00,67411
9/9/17 20:00,67698
9/9/17 21:00,69587
9/9/17 22:00,68900
9/9/17 23:00,68079
9/10/17 0:00,67901
9/10/17 1:00,66860
9/10/17 2:00,66193
9/10/17 3:00,62532
9/10/17 4:00,56369
9/10/17 5:00,52906
9/10/17 6:00,51550
9/10/17 7:00,51248
9/10/17 8:00,50233
9/10/17 9:00,51054
9/10/17 10:00,50789
9/10/17 11:00,48701
9/10/17 12:00,49749
9/10/17 13:00,53582
9/10/17 14:00,56878
9/10/17 15:00,54820
9/10/17 16:00,58235
9/10/17 17:00,60236
9/10/17 18:00,65125
9/10/17 19:00,69820
9/10/17 20:00,71462
9/10/17 21:00,72497
9/10/17 22:00,70822
9/10/17 23:00,70073
9/11/17 0:00,68896
9/11/17 1:00,65598
9/11/17 2:00,62772
9/11/17 3:00,61300
9/11/17 4:00,57008
9/11/17 5:00,52173
9/11/17 6:00,50963
9/11/17 7:00,49751
9/11/17 8:00,49617
9/11/17 9:00,50517
9/11/17 10:00,50064
9/11/17 11:00,47793
9/11/17 12:00,49253
9/11/17 13:00,51918
9/11/17 14:00,53022
9/11/17 15:00,51762
9/11/17 16:00,54646
9/11/17 17:00,60091
9/11/17 18:00,64214
9/11/17 19:00,69587
9/11/17 20:00,72401
9/11/17 21:00,73265
9/11/17 22:00,72764
9/11/17 23:00,73850
9/12/17 0:00,70906
9/12/17 1:00,68406
9/12/17 2:00,67464
9/12/17 3:00,65501
9/12/17 4:00,59121
9/12/17 5:00,54863
9/12/17 6:00,53238
9/12/17 7:00,51941
9/12/17 8:00,51532
9/12/17 9:00,50893
9/12/17 10:00,52206
9/12/17 11:00,51575
9/12/17 12:00,60593
9/12/17 13:00,61463
9/12/17 14:00,64076
9/12/17 15:00,65052
9/12/17 16:00,69354
9/12/17 17:00,75927
9/12/17 18:00,85434
9/12/17 19:00,94922
9/12/17 20:00,95925
9/12/17 21:00,98044
9/12/17 22:00,97987
9/12/17 23:00,95904
9/13/17 0:00,94386
9/13/17 1:00,92753
9/13/17 2:00,88903
9/13/17 3:00,85242
9/13/17 4:00,84487
9/13/17 5:00,84534
9/13/17 6:00,84301
9/13/17 7:00,84427
9/13/17 8:00,77246
9/13/17 9:00,69121
9/13/17 10:00,61657
9/13/17 11:00,60505
9/13/17 12:00,60932
9/13/17 13:00,64968
9/13/17 14:00,68200
9/13/17 15:00,67073
9/13/17 16:00,73888
9/13/17 17:00,78295
9/13/17 18:00,84380
9/13/17 19:00,91018
9/13/17 20:00,94259
9/13/17 21:00,97148
9/13/17 22:00,95351
9/13/17 23:00,94013
9/14/17 0:00,93528
9/14/17 1:00,91860
9/14/17 2:00,83417
9/14/17 3:00,79145
9/14/17 4:00,76244
9/14/17 5:00,76109
9/14/17 6:00,75378
9/14/17 7:00,74238
9/14/17 8:00,71733
9/14/17 9:00,66776
9/14/17 10:00,62455
9/14/17 11:00,59165
9/14/17 12:00,59556
9/14/17 13:00,60350
9/14/17 14:00,61631
9/14/17 15:00,62304
9/14/17 16:00,66371
9/14/17 17:00,74119
9/14/17 18:00,80104
9/14/17 19:00,86566
9/14/17 20:00,87355
9/14/17 21:00,86715
9/14/17 22:00,87447
9/14/17 23:00,88214
9/15/17 0:00,88429
9/15/17 1:00,89350
9/15/17 2:00,85933
9/15/17 3:00,83079
9/15/17 4:00,77549
9/15/17 5:00,76456
9/15/17 6:00,53648
9/15/17 7:00,53129
9/15/17 8:00,52689
9/15/17 9:00,53511
9/15/17 10:00,53958
9/15/17 11:00,50045
9/15/17 12:00,50666
9/15/17 13:00,51556
9/15/17 14:00,53754
9/15/17 15:00,51705
9/15/17 16:00,54828
9/15/17 17:00,59551
9/15/17 18:00,65913
9/15/17 19:00,72317
9/15/17 20:00,75608
9/15/17 21:00,75325
9/15/17 22:00,77870
9/15/17 23:00,76236
9/16/17 0:00,71941
9/16/17 1:00,70362
9/16/17 2:00,69066
9/16/17 3:00,65217
9/16/17 4:00,59476
9/16/17 5:00,54351
9/16/17 6:00,53036
9/16/17 7:00,52465
9/16/17 8:00,52530
9/16/17 9:00,54361
9/16/17 10:00,53824
9/16/17 11:00,50836
9/16/17 12:00,52460
9/16/17 13:00,55659
9/16/17 14:00,58225
9/16/17 15:00,55959
9/16/17 16:00,60244
9/16/17 17:00,63111
9/16/17 18:00,69430
9/16/17 19:00,75056
9/16/17 20:00,76626
9/16/17 21:00,79602
9/16/17 22:00,76787
9/16/17 23:00,75486
9/17/17 0:00,74700
9/17/17 1:00,73272
9/17/17 2:00,69811
9/17/17 3:00,66879
9/17/17 4:00,58748
9/17/17 5:00,54349
9/17/17 6:00,53757
9/17/17 7:00,52188
9/17/17 8:00,52195
9/17/17 9:00,52807
9/17/17 10:00,53250
9/17/17 11:00,49990
9/17/17 12:00,50255
9/17/17 13:00,51449
9/17/17 14:00,53051
9/17/17 15:00,52100
9/17/17 16:00,55620
9/17/17 17:00,60431
9/17/17 18:00,65818
9/17/17 19:00,71798
9/17/17 20:00,74326
9/17/17 21:00,75194
9/17/17 22:00,76364
9/17/17 23:00,75033
9/18/17 0:00,71574
9/18/17 1:00,69162
9/18/17 2:00,67800
9/18/17 3:00,64367
9/18/17 4:00,57800
9/18/17 5:00,53316
9/18/17 6:00,52003
9/18/17 7:00,51021
9/18/17 8:00,51522
9/18/17 9:00,52736
9/18/17 10:00,52428
9/18/17 11:00,50675
9/18/17 12:00,51796
9/18/17 13:00,54410
9/18/17 14:00,56017
9/18/17 15:00,54053
9/18/17 16:00,58302
9/18/17 17:00,62685
9/18/17 18:00,68106
9/18/17 19:00,73857
9/18/17 20:00,75762
9/18/17 21:00,77382
9/18/17 22:00,76693
9/18/17 23:00,74549
9/19/17 0:00,71233
9/19/17 1:00,68866
9/19/17 2:00,66440
9/19/17 3:00,62779
9/19/17 4:00,58050
9/19/17 5:00,53944
9/19/17 6:00,51361
9/19/17 7:00,51550
9/19/17 8:00,50982
9/19/17 9:00,51692
9/19/17 10:00,50687
9/19/17 11:00,51662
9/19/17 12:00,56039
9/19/17 13:00,59639
9/19/17 14:00,62115
9/19/17 15:00,62823
9/19/17 16:00,67087
9/19/17 17:00,71300
9/19/17 18:00,76563
9/19/17 19:00,84517
9/19/17 20:00,83897
9/19/17 21:00,86050
9/19/17 22:00,80220
9/19/17 23:00,79642
9/20/17 0:00,78092
9/20/17 1:00,76775
9/20/17 2:00,74422
9/20/17 3:00,70105
9/20/17 4:00,68210
9/20/17 5:00,67565
9/20/17 6:00,66244
9/20/17 7:00,65067
9/20/17 8:00,59641
9/20/17 9:00,55794
9/20/17 10:00,54291
9/20/17 11:00,53475
9/20/17 12:00,54009
9/20/17 13:00,55415
9/20/17 14:00,56963
9/20/17 15:00,57175
9/20/17 16:00,60693
9/20/17 17:00,66504
9/20/17 18:00,71740
9/20/17 19:00,75327
9/20/17 20:00,76786
9/20/17 21:00,77483
9/20/17 22:00,77915
9/20/17 23:00,77473
9/21/17 0:00,75764
9/21/17 1:00,74799
9/21/17 2:00,73177
9/21/17 3:00,69909
9/21/17 4:00,66053
9/21/17 5:00,65046
9/21/17 6:00,64150
9/21/17 7:00,62736
9/21/17 8:00,60154
9/21/17 9:00,56100
9/21/17 10:00,54092
9/21/17 11:00,52213
9/21/17 12:00,53697
9/21/17 13:00,55122
9/21/17 14:00,56045
9/21/17 15:00,56754
9/21/17 16:00,60428
9/21/17 17:00,65186
9/21/17 18:00,70459
9/21/17 19:00,71476
9/21/17 20:00,72355
9/21/17 21:00,72343
9/21/17 22:00,71813
9/21/17 23:00,71976
9/22/17 0:00,69656
9/22/17 1:00,69167
9/22/17 2:00,68823
9/22/17 3:00,66720
9/22/17 4:00,61024
9/22/17 5:00,59508
9/22/17 6:00,50709
9/22/17 7:00,50725
9/22/17 8:00,50860
9/22/17 9:00,52317
9/22/17 10:00,51064
9/22/17 11:00,49668
9/22/17 12:00,52534
9/22/17 13:00,55648
9/22/17 14:00,60586
9/22/17 15:00,57271
9/22/17 16:00,62050
9/22/17 17:00,64489
9/22/17 18:00,66823
9/22/17 19:00,68768
9/22/17 20:00,70708
9/22/17 21:00,71383
9/22/17 22:00,69637
9/22/17 23:00,66558
9/23/17 0:00,65019
9/23/17 1:00,62995
9/23/17 2:00,61391
9/23/17 3:00,59185
9/23/17 4:00,53715
9/23/17 5:00,50624
9/23/17 6:00,48611
9/23/17 7:00,49079
9/23/17 8:00,48963
9/23/17 9:00,50591
9/23/17 10:00,49870
9/23/17 11:00,48872
9/23/17 12:00,50151
9/23/17 13:00,52943
9/23/17 14:00,54573
9/23/17 15:00,53746
9/23/17 16:00,56320
9/23/17 17:00,60626
9/23/17 18:00,64744
9/23/17 19:00,67291
9/23/17 20:00,70571
9/23/17 21:00,69588
9/23/17 22:00,69212
9/23/17 23:00,67993
9/24/17 0:00,66757
9/24/17 1:00,65466
9/24/17 2:00,65469
9/24/17 3:00,61754
9/24/17 4:00,55714
9/24/17 5:00,51607
9/24/17 6:00,49871
9/24/17 7:00,48958
9/24/17 8:00,48962
9/24/17 9:00,50420
9/24/17 10:00,49263
9/24/17 11:00,49019
9/24/17 12:00,50344
9/24/17 13:00,52061
9/24/17 14:00,54843
9/24/17 15:00,65374
9/24/17 16:00,66225
9/24/17 17:00,73057
9/24/17 18:00,77246
9/24/17 19:00,78536
9/24/17 20:00,78251
9/24/17 21:00,78025
9/24/17 22:00,76440
9/24/17 23:00,75229
9/25/17 0:00,72305
9/25/17 1:00,70078
9/25/17 2:00,69438
9/25/17 3:00,67459
9/25/17 4:00,62708
9/25/17 5:00,60220
9/25/17 6:00,58541
9/25/17 7:00,57533
9/25/17 8:00,57351
9/25/17 9:00,56658
9/25/17 10:00,54792
9/25/17 11:00,53660
9/25/17 12:00,57698
9/25/17 13:00,61200
9/25/17 14:00,66643
9/25/17 15:00,64709
9/25/17 16:00,69483
9/25/17 17:00,72102
9/25/17 18:00,76685
9/25/17 19:00,78561
9/25/17 20:00,77444
9/25/17 21:00,79641
9/25/17 22:00,76697
9/25/17 23:00,75591
9/26/17 0:00,73854
9/26/17 1:00,72792
9/26/17 2:00,72462
9/26/17 3:00,71605
9/26/17 4:00,64379
9/26/17 5:00,61242
9/26/17 6:00,58720
9/26/17 7:00,58212
9/26/17 8:00,55880
9/26/17 9:00,55705
9/26/17 10:00,52942
9/26/17 11:00,53827
9/26/17 12:00,56107
9/26/17 13:00,59349
9/26/17 14:00,61252
9/26/17 15:00,61110
9/26/17 16:00,63768
9/26/17 17:00,70575
9/26/17 18:00,76635
9/26/17 19:00,82615
9/26/17 20:00,83083
9/26/17 21:00,84711
9/26/17 22:00,85459
9/26/17 23:00,83578
9/27/17 0:00,82965
9/27/17 1:00,81189
9/27/17 2:00,77848
9/27/17 3:00,75183
9/27/17 4:00,71541
9/27/17 5:00,70033
9/27/17 6:00,69894
9/27/17 7:00,68640
9/27/17 8:00,65939
9/27/17 9:00,61216
9/27/17 10:00,59338
9/27/17 11:00,58841
9/27/17 12:00,60053
9/27/17 13:00,60403
9/27/17 14:00,62692
9/27/17 15:00,61736
9/27/17 16:00,66612
9/27/17 17:00,71638
9/27/17 18:00,76374
9/27/17 19:00,80592
9/27/17 20:00,82284
9/27/17 21:00,83634
9/27/17 22:00,85375
9/27/17 23:00,84596
9/28/17 0:00,84208
9/28/17 1:00,80982
9/28/17 2:00,78720
9/28/17 3:00,75344
9/28/17 4:00,72336
9/28/17 5:00,71315
9/28/17 6:00,70704
9/28/17 7:00,70122
9/28/17 8:00,66729
9/28/17 9:00,62317
9/28/17 10:00,60005
9/28/17 11:00,59690
9/28/17 12:00,60353
9/28/17 13:00,64640
9/28/17 14:00,69613
9/28/17 15:00,66765
9/28/17 16:00,71932
9/28/17 17:00,75102
9/28/17 18:00,77750
9/28/17 19:00,79443
9/28/17 20:00,79395
9/28/17 21:00,80308
9/28/17 22:00,77664
9/28/17 23:00,77529
9/29/17 0:00,75636
9/29/17 1:00,74184
9/29/17 2:00,72712
9/29/17 3:00,70029
9/29/17 4:00,64418
9/29/17 5:00,62942
9/29/17 6:00,56076
9/29/17 7:00,55654
9/29/17 8:00,56498
9/29/17 9:00,56808
9/29/17 10:00,56643
9/29/17 11:00,55802
9/29/17 12:00,56297
9/29/17 13:00,58625
9/29/17 14:00,61383
9/29/17 15:00,59457
9/29/17 16:00,62501
9/29/17 17:00,66839
9/29/17 18:00,71128
9/29/17 19:00,74290
9/29/17 20:00,74407
9/29/17 21:00,75793
9/29/17 22:00,74139
9/29/17 23:00,73247
9/30/17 0:00,73080
9/30/17 1:00,69719
9/30/17 2:00,67484
9/30/17 3:00,64683
9/30/17 4:00,60390
9/30/17 5:00,55925
9/30/17 6:00,54232
9/30/17 7:00,54096
9/30/17 8:00,54992
9/30/17 9:00,54985
9/30/17 10:00,55288
9/30/17 11:00,54305
9/30/17 12:00,56426
9/30/17 13:00,58989
9/30/17 14:00,61063
9/30/17 15:00,59611
9/30/17 16:00,62506
9/30/17 17:00,68542
9/30/17 18:00,73055
9/30/17 19:00,74948
9/30/17 20:00,76188
9/30/17 21:00,74532
9/30/17 22:00,75922
9/30/17 23:00,75863
10/1/17 0:00,73673
10/1/17 1:00,72369
10/1/17 2:00,72400
10/1/17 3:00,69140
10/1/17 4:00,61371
10/1/17 5:00,57480
10/1/17 6:00,54701
10/1/17 7:00,55910
10/1/17 8:00,57580
10/1/17 9:00,58147
10/1/17 10:00,58805
10/1/17 11:00,58638
10/1/17 12:00,61491
10/1/17 13:00,65275
10/1/17 14:00,70804
10/1/17 15:00,69158
10/1/17 16:00,74013
10/1/17 17:00,74976
10/1/17 18:00,80914
10/1/17 19:00,82354
10/1/17 20:00,82838
10/1/17 21:00,85979
10/1/17 22:00,81651
10/1/17 23:00,78882
10/2/17 0:00,75500
10/2/17 1:00,74589
10/2/17 2:00,74090
10/2/17 3:00,69695
10/2/17 4:00,64298
10/2/17 5:00,59747
10/2/17 6:00,57118
10/2/17 7:00,57458
10/2/17 8:00,56781
10/2/17 9:00,56565
10/2/17 10:00,56580
10/2/17 11:00,57274
10/2/17 12:00,59304
10/2/17 13:00,62635
10/2/17 14:00,64741
10/2/17 15:00,65075
10/2/17 16:00,68442
10/2/17 17:00,73336
10/2/17 18:00,78417
10/2/17 19:00,81628
10/2/17 20:00,81807
10/2/17 21:00,83767
10/2/17 22:00,84843
10/2/17 23:00,84650
10/3/17 0:00,83671
10/3/17 1:00,81283
10/3/17 2:00,81500
10/3/17 3:00,80159
10/3/17 4:00,77429
10/3/17 5:00,76731
10/3/17 6:00,74660
10/3/17 7:00,70998
10/3/17 8:00,66020
10/3/17 9:00,60692
10/3/17 10:00,57934
10/3/17 11:00,60008
10/3/17 12:00,62444
10/3/17 13:00,66014
10/3/17 14:00,68881
10/3/17 15:00,68739
10/3/17 16:00,74716
10/3/17 17:00,81037
10/3/17 18:00,85652
10/3/17 19:00,92625
10/3/17 20:00,93888
10/3/17 21:00,94361
10/3/17 22:00,94013
10/3/17 23:00,93162
10/4/17 0:00,91590
10/4/17 1:00,87331
10/4/17 2:00,84851
10/4/17 3:00,79400
10/4/17 4:00,76609
10/4/17 5:00,75089
10/4/17 6:00,75075
10/4/17 7:00,74168
10/4/17 8:00,71068
10/4/17 9:00,65665
10/4/17 10:00,62235
10/4/17 11:00,62908
10/4/17 12:00,65099
10/4/17 13:00,66757
10/4/17 14:00,72785
10/4/17 15:00,71855
10/4/17 16:00,78468
10/4/17 17:00,80741
10/4/17 18:00,85825
10/4/17 19:00,89779
10/4/17 20:00,92259
10/4/17 21:00,93531
10/4/17 22:00,90853
10/4/17 23:00,90624
10/5/17 0:00,88933
10/5/17 1:00,87286
10/5/17 2:00,85053
10/5/17 3:00,81618
10/5/17 4:00,75603
10/5/17 5:00,74772
10/5/17 6:00,75225
10/5/17 7:00,73028
10/5/17 8:00,70598
10/5/17 9:00,67000
10/5/17 10:00,62056
10/5/17 11:00,62408
10/5/17 12:00,64222
10/5/17 13:00,64454
10/5/17 14:00,66834
10/5/17 15:00,66712
10/5/17 16:00,70793
10/5/17 17:00,75428
10/5/17 18:00,81198
10/5/17 19:00,83332
10/5/17 20:00,84196
10/5/17 21:00,83141
10/5/17 22:00,83011
10/5/17 23:00,82612
10/6/17 0:00,81574
10/6/17 1:00,80483
10/6/17 2:00,78365
10/6/17 3:00,77069
10/6/17 4:00,70276
10/6/17 5:00,68764
10/6/17 6:00,59972
10/6/17 7:00,58778
10/6/17 8:00,59747
10/6/17 9:00,59816
10/6/17 10:00,59071
10/6/17 11:00,58132
10/6/17 12:00,59161
10/6/17 13:00,61865
10/6/17 14:00,63441
10/6/17 15:00,62864
10/6/17 16:00,66276
10/6/17 17:00,70585
10/6/17 18:00,75150
10/6/17 19:00,79723
10/6/17 20:00,80328
10/6/17 21:00,79986
10/6/17 22:00,79636
10/6/17 23:00,78662
10/7/17 0:00,77232
10/7/17 1:00,74698
10/7/17 2:00,72959
10/7/17 3:00,69757
10/7/17 4:00,64730
10/7/17 5:00,58686
10/7/17 6:00,55077
10/7/17 7:00,54946
10/7/17 8:00,55606
10/7/17 9:00,56981
10/7/17 10:00,56811
10/7/17 11:00,55258
10/7/17 12:00,57263
10/7/17 13:00,61219
10/7/17 14:00,67942
10/7/17 15:00,67853
10/7/17 16:00,72634
10/7/17 17:00,73934
10/7/17 18:00,78629
10/7/17 19:00,80677
10/7/17 20:00,82284
10/7/17 21:00,79657
10/7/17 22:00,74568
10/7/17 23:00,74381
10/8/17 0:00,72883
10/8/17 1:00,69958
10/8/17 2:00,69108
10/8/17 3:00,65655
10/8/17 4:00,60469
10/8/17 5:00,56640
10/8/17 6:00,55101
10/8/17 7:00,54314
10/8/17 8:00,55218
10/8/17 9:00,55846
10/8/17 10:00,56609
10/8/17 11:00,55754
10/8/17 12:00,57038
10/8/17 13:00,58793
10/8/17 14:00,61944
10/8/17 15:00,63102
10/8/17 16:00,67204
10/8/17 17:00,71619
10/8/17 18:00,74936
10/8/17 19:00,78523
10/8/17 20:00,78898
10/8/17 21:00,76113
10/8/17 22:00,76124
10/8/17 23:00,73449
10/9/17 0:00,72294
10/9/17 1:00,69402
10/9/17 2:00,68142
10/9/17 3:00,67081
10/9/17 4:00,62765
10/9/17 5:00,57996
10/9/17 6:00,56886
10/9/17 7:00,56040
10/9/17 8:00,55439
10/9/17 9:00,56927
10/9/17 10:00,56495
10/9/17 11:00,56915
10/9/17 12:00,58724
10/9/17 13:00,60722
10/9/17 14:00,65302
10/9/17 15:00,64668
10/9/17 16:00,67953
10/9/17 17:00,71948
10/9/17 18:00,76620
10/9/17 19:00,80170
10/9/17 20:00,81935
10/9/17 21:00,79368
10/9/17 22:00,77091
10/9/17 23:00,75983
10/10/17 0:00,73647
10/10/17 1:00,71457
10/10/17 2:00,69615
10/10/17 3:00,66685
10/10/17 4:00,62939
10/10/17 5:00,58800
10/10/17 6:00,58036
10/10/17 7:00,56790
10/10/17 8:00,56078
10/10/17 9:00,56456
10/10/17 10:00,57227
10/10/17 11:00,58152
10/10/17 12:00,62499
10/10/17 13:00,69600
10/10/17 14:00,75422
10/10/17 15:00,74908
10/10/17 16:00,78550
10/10/17 17:00,83057
10/10/17 18:00,88444
10/10/17 19:00,93693
10/10/17 20:00,96027
10/10/17 21:00,101215
10/10/17 22:00,96155
10/10/17 23:00,90894
10/11/17 0:00,88331
10/11/17 1:00,85286
10/11/17 2:00,83295
10/11/17 3:00,78885
10/11/17 4:00,75332
10/11/17 5:00,74178
10/11/17 6:00,73543
10/11/17 7:00,73324
10/11/17 8:00,69397
10/11/17 9:00,64829
10/11/17 10:00,62274
10/11/17 11:00,62627
10/11/17 12:00,63580
10/11/17 13:00,65428
10/11/17 14:00,70160
10/11/17 15:00,71385
10/11/17 16:00,75699
10/11/17 17:00,81098
10/11/17 18:00,86986
10/11/17 19:00,90268
10/11/17 20:00,93305
10/11/17 21:00,94672
10/11/17 22:00,94720
10/11/17 23:00,89752
10/12/17 0:00,88166
10/12/17 1:00,84468
10/12/17 2:00,81675
10/12/17 3:00,79368
10/12/17 4:00,75655
10/12/17 5:00,73645
10/12/17 6:00,73906
10/12/17 7:00,73218
10/12/17 8:00,69927
10/12/17 9:00,65857
10/12/17 10:00,62969
10/12/17 11:00,62239
10/12/17 12:00,63723
10/12/17 13:00,65235
10/12/17 14:00,67409
10/12/17 15:00,67332
10/12/17 16:00,72365
10/12/17 17:00,77732
10/12/17 18:00,82012
10/12/17 19:00,84948
10/12/17 20:00,85629
10/12/17 21:00,88059
10/12/17 22:00,86759
10/12/17 23:00,83729
10/13/17 0:00,84187
10/13/17 1:00,84022
10/13/17 2:00,81218
10/13/17 3:00,79301
10/13/17 4:00,74793
10/13/17 5:00,75482
10/13/17 6:00,65788
10/13/17 7:00,64434
10/13/17 8:00,63125
10/13/17 9:00,63063
10/13/17 10:00,63003
10/13/17 11:00,61117
10/13/17 12:00,62605
10/13/17 13:00,67435
10/13/17 14:00,72261
10/13/17 15:00,70482
10/13/17 16:00,75369
10/13/17 17:00,76879
10/13/17 18:00,80739
10/13/17 19:00,84134
10/13/17 20:00,84328
10/13/17 21:00,87793
10/13/17 22:00,84150
10/13/17 23:00,81436
10/14/17 0:00,77669
10/14/17 1:00,78230
10/14/17 2:00,77097
10/14/17 3:00,76839
10/14/17 4:00,69811
10/14/17 5:00,67899
10/14/17 6:00,65916
10/14/17 7:00,63992
10/14/17 8:00,63642
10/14/17 9:00,63507
10/14/17 10:00,62944
10/14/17 11:00,63480
10/14/17 12:00,65027
10/14/17 13:00,67259
10/14/17 14:00,70487
10/14/17 15:00,68367
10/14/17 16:00,72598
10/14/17 17:00,79222
10/14/17 18:00,84275
10/14/17 19:00,87574
10/14/17 20:00,88812
10/14/17 21:00,88621
10/14/17 22:00,86052
10/14/17 23:00,87991
10/15/17 0:00,89140
10/15/17 1:00,86234
10/15/17 2:00,82661
10/15/17 3:00,78529
10/15/17 4:00,74370
10/15/17 5:00,70190
10/15/17 6:00,67213
10/15/17 7:00,65895
10/15/17 8:00,65558
10/15/17 9:00,64555
10/15/17 10:00,65828
10/15/17 11:00,66006
10/15/17 12:00,67244
10/15/17 13:00,69220
10/15/17 14:00,72300
10/15/17 15:00,70987
10/15/17 16:00,75935
10/15/17 17:00,81451
10/15/17 18:00,86041
10/15/17 19:00,92184
10/15/17 20:00,94142
10/15/17 21:00,95905
10/15/17 22:00,95333
10/15/17 23:00,92871
10/16/17 0:00,91324
10/16/17 1:00,88517
10/16/17 2:00,87013
10/16/17 3:00,82871
10/16/17 4:00,77730
10/16/17 5:00,74759
10/16/17 6:00,71474
10/16/17 7:00,67612
10/16/17 8:00,65277
10/16/17 9:00,66025
10/16/17 10:00,66257
10/16/17 11:00,67650
10/16/17 12:00,71174
10/16/17 13:00,76384
10/16/17 14:00,81381
10/16/17 15:00,78988
10/16/17 16:00,84789
10/16/17 17:00,87355
10/16/17 18:00,92604
10/16/17 19:00,96801
10/16/17 20:00,100796
10/16/17 21:00,102361
10/16/17 22:00,98075
10/16/17 23:00,96801
10/17/17 0:00,94866
10/17/17 1:00,93310
10/17/17 2:00,91269
10/17/17 3:00,88156
10/17/17 4:00,83534
10/17/17 5:00,80608
10/17/17 6:00,78327
10/17/17 7:00,75246
10/17/17 8:00,69820
10/17/17 9:00,65796
10/17/17 10:00,65649
10/17/17 11:00,68639
10/17/17 12:00,73079
10/17/17 13:00,75475
10/17/17 14:00,78726
10/17/17 15:00,79643
10/17/17 16:00,82630
10/17/17 17:00,88684
10/17/17 18:00,96279
10/17/17 19:00,103175
10/17/17 20:00,103780
10/17/17 21:00,106301
10/17/17 22:00,105371
10/17/17 23:00,104845
10/18/17 0:00,102694
10/18/17 1:00,99353
10/18/17 2:00,95082
10/18/17 3:00,89400
10/18/17 4:00,85612
10/18/17 5:00,84917
10/18/17 6:00,85021
10/18/17 7:00,83065
10/18/17 8:00,79006
10/18/17 9:00,74475
10/18/17 10:00,72474
10/18/17 11:00,73173
10/18/17 12:00,74363
10/18/17 13:00,77516
10/18/17 14:00,80270
10/18/17 15:00,79641
10/18/17 16:00,82912
10/18/17 17:00,90259
10/18/17 18:00,98018
10/18/17 19:00,101457
10/18/17 20:00,104779
10/18/17 21:00,107057
10/18/17 22:00,107792
10/18/17 23:00,108220
10/19/17 0:00,106908
10/19/17 1:00,103026
10/19/17 2:00,99511
10/19/17 3:00,94750
10/19/17 4:00,90486
10/19/17 5:00,89270
10/19/17 6:00,88703
10/19/17 7:00,86666
10/19/17 8:00,82069
10/19/17 9:00,76960
10/19/17 10:00,75069
10/19/17 11:00,75354
10/19/17 12:00,78399
10/19/17 13:00,83247
10/19/17 14:00,89385
10/19/17 15:00,86770
10/19/17 16:00,93314
10/19/17 17:00,97386
10/19/17 18:00,105195
10/19/17 19:00,107457
10/19/17 20:00,111117
10/19/17 21:00,113740
10/19/17 22:00,109530
10/19/17 23:00,112209
10/20/17 0:00,110739
10/20/17 1:00,106238
10/20/17 2:00,103275
10/20/17 3:00,97887
10/20/17 4:00,93580
10/20/17 5:00,97034
10/20/17 6:00,82655
10/20/17 7:00,79921
10/20/17 8:00,76601
10/20/17 9:00,73317
10/20/17 10:00,72583
10/20/17 11:00,71790
10/20/17 12:00,74613
10/20/17 13:00,76390
10/20/17 14:00,78613
10/20/17 15:00,78039
10/20/17 16:00,82533
10/20/17 17:00,88812
10/20/17 18:00,95109
10/20/17 19:00,98628
10/20/17 20:00,99469
10/20/17 21:00,100539
10/20/17 22:00,100206
10/20/17 23:00,99101
10/21/17 0:00,97815
10/21/17 1:00,94334
10/21/17 2:00,94050
10/21/17 3:00,90665
10/21/17 4:00,84537
10/21/17 5:00,81414
10/21/17 6:00,79395
10/21/17 7:00,77292
10/21/17 8:00,73536
10/21/17 9:00,69889
10/21/17 10:00,70103
10/21/17 11:00,70267
10/21/17 12:00,72495
10/21/17 13:00,76648
10/21/17 14:00,77600
10/21/17 15:00,77112
10/21/17 16:00,81135
10/21/17 17:00,89227
10/21/17 18:00,94224
10/21/17 19:00,98987
10/21/17 20:00,98514
10/21/17 21:00,89594
10/21/17 22:00,100374
10/21/17 23:00,99055
10/22/17 0:00,96614
10/22/17 1:00,93671
10/22/17 2:00,93742
10/22/17 3:00,90455
10/22/17 4:00,83537
10/22/17 5:00,80091
10/22/17 6:00,77193
10/22/17 7:00,75570
10/22/17 8:00,72491
10/22/17 9:00,71000
10/22/17 10:00,71023
10/22/17 11:00,71000
10/22/17 12:00,73646
10/22/17 13:00,79441
10/22/17 14:00,85699
10/22/17 15:00,82385
10/22/17 16:00,89429
10/22/17 17:00,93277
10/22/17 18:00,99444
10/22/17 19:00,102739
10/22/17 20:00,104338
10/22/17 21:00,107174
10/22/17 22:00,103531
10/22/17 23:00,99721
10/23/17 0:00,99315
10/23/17 1:00,95652
10/23/17 2:00,93147
10/23/17 3:00,88595
10/23/17 4:00,82461
10/23/17 5:00,78576
10/23/17 6:00,78408
10/23/17 7:00,76513
10/23/17 8:00,73906
10/23/17 9:00,72359
10/23/17 10:00,71807
10/23/17 11:00,71959
10/23/17 12:00,74223
10/23/17 13:00,77717
10/23/17 14:00,81689
10/23/17 15:00,80706
10/23/17 16:00,84393
10/23/17 17:00,89686
10/23/17 18:00,97327
10/23/17 19:00,101539
10/23/17 20:00,104050
10/23/17 21:00,104428
10/23/17 22:00,104298
10/23/17 23:00,100900
10/24/17 0:00,97993
10/24/17 1:00,93614
10/24/17 2:00,94199
10/24/17 3:00,89489
10/24/17 4:00,82479
10/24/17 5:00,80059
10/24/17 6:00,77092
10/24/17 7:00,76868
10/24/17 8:00,73880
10/24/17 9:00,72774
10/24/17 10:00,71397
10/24/17 11:00,73073
10/24/17 12:00,77320
10/24/17 13:00,81391
10/24/17 14:00,84301
10/24/17 15:00,86397
10/24/17 16:00,90193
10/24/17 17:00,98899
10/24/17 18:00,109014
10/24/17 19:00,116265
10/24/17 20:00,116916
10/24/17 21:00,118291
10/24/17 22:00,117658
10/24/17 23:00,117938
10/25/17 0:00,115528
10/25/17 1:00,112200
10/25/17 2:00,108129
10/25/17 3:00,103121
10/25/17 4:00,97898
10/25/17 5:00,98105
10/25/17 6:00,98676
10/25/17 7:00,97136
10/25/17 8:00,92768
10/25/17 9:00,85254
10/25/17 10:00,79956
10/25/17 11:00,79845
10/25/17 12:00,82115
10/25/17 13:00,86886
10/25/17 14:00,91651
10/25/17 15:00,89862
10/25/17 16:00,97454
10/25/17 17:00,102174
10/25/17 18:00,110495
10/25/17 19:00,115101
10/25/17 20:00,118113
10/25/17 21:00,122620
10/25/17 22:00,120614
10/25/17 23:00,119539
10/26/17 0:00,119239
10/26/17 1:00,116716
10/26/17 2:00,112354
10/26/17 3:00,107844
10/26/17 4:00,101121
10/26/17 5:00,98674
10/26/17 6:00,97734
10/26/17 7:00,96533
10/26/17 8:00,92452
10/26/17 9:00,85965
10/26/17 10:00,81265
10/26/17 11:00,81356
10/26/17 12:00,84074
10/26/17 13:00,86982
10/26/17 14:00,89235
10/26/17 15:00,88581
10/26/17 16:00,94796
10/26/17 17:00,102352
10/26/17 18:00,110518
10/26/17 19:00,113291
10/26/17 20:00,114327
10/26/17 21:00,116189
10/26/17 22:00,115389
10/26/17 23:00,115077
10/27/17 0:00,114109
10/27/17 1:00,112529
10/27/17 2:00,112490
10/27/17 3:00,109096
10/27/17 4:00,100471
10/27/17 5:00,98599
10/27/17 6:00,81524
10/27/17 7:00,82700
10/27/17 8:00,82367
10/27/17 9:00,83893
10/27/17 10:00,81718
10/27/17 11:00,79568
10/27/17 12:00,81491
10/27/17 13:00,84768
10/27/17 14:00,89347
10/27/17 15:00,88897
10/27/17 16:00,95428
10/27/17 17:00,105190
10/27/17 18:00,115213
10/27/17 19:00,121831
10/27/17 20:00,121985
10/27/17 21:00,120531
10/27/17 22:00,118844
10/27/17 23:00,116485
10/28/17 0:00,109547
10/28/17 1:00,110909
10/28/17 2:00,110555
10/28/17 3:00,107069
10/28/17 4:00,96596
10/28/17 5:00,90123
10/28/17 6:00,87313
10/28/17 7:00,86338
10/28/17 8:00,86183
10/28/17 9:00,89520
10/28/17 10:00,89402
10/28/17 11:00,86902
10/28/17 12:00,88370
10/28/17 13:00,95504
10/28/17 14:00,102912
10/28/17 15:00,102120
10/28/17 16:00,111837
10/28/17 17:00,119322
10/28/17 18:00,124567
10/28/17 19:00,125366
10/28/17 20:00,126644